ACTION,RESOLUTION,FIRST,SECOND
Administrative Cut Off,CANOT,
Administrative Cut Off,CNCLD,
Administrative Cut Off,CNL  ,
Administrative Cut Off,DSCCG,CTOFF
Administrative Cut Off,DSCCS,CTOFF
Administrative Cut Off,DSCML,CTOFF
Administrative Cut Off,DSCNT,CTOFF
Administrative Cut Off,DSCRM,CTOFF
Administrative Cut Off,DSCRP,CTOFF
Administrative Cut Off,DSMLN,CTOFF
Administrative Cut Off,DSOFF,CTOFF
Administrative Cut Off,DSPLS,PULL
Administrative Cut Off,DSPUL,PULL
Administrative Cut Off,DSTMP,PULL
Administrative Cut Off,DSTMS,PULL
Administrative Cut Off,NOACC,
Administrative Cut Off,NOMT ,
Adminstrative On                        ,CANOT,
Adminstrative On                        ,CNCLD,
Adminstrative On                        ,CNL  ,
Adminstrative On                        ,LCKFE,CTON
Adminstrative On                        ,MTCHG,CTON
Adminstrative On                        ,MTCHS,CTON
Adminstrative On                        ,MTLCK,CTON
Adminstrative On                        ,MTRBX,CTON
Adminstrative On                        ,MTRCB,CTON
Adminstrative On                        ,MTRMT,CTON
Adminstrative On                        ,MTRST,SET
Adminstrative On                        ,NOACC,
Adminstrative On                        ,OPNFT,CTON
Adminstrative On                        ,RECON,CTON
Bankruptcy Read                         ,BNKRD,RR
Bankruptcy Read                         ,CANOT,
Bankruptcy Read                         ,CNCLD,
Bankruptcy Read                         ,NOACC,
Billing Hi-Lo Re-Read,CANOT,
Billing Hi-Lo Re-Read,CNCLD,
Billing Hi-Lo Re-Read,CNL  ,
Billing Hi-Lo Re-Read,INLK ,
Billing Hi-Lo Re-Read,MTCHF,
Billing Hi-Lo Re-Read,MTCHS,
Billing Hi-Lo Re-Read,MTMTF,
Billing Hi-Lo Re-Read,MTRCB,
Billing Hi-Lo Re-Read,MTRCH,
Billing Hi-Lo Re-Read,MTRCS,
Billing Hi-Lo Re-Read,MTRMT,
Billing Hi-Lo Re-Read,MTRRA,
Billing Hi-Lo Re-Read,MTRRD,
Billing Hi-Lo Re-Read,NOMT ,
Billing Hi-Lo Re-Read,OPNFT,
Billing Hi-Lo Re-Read,OUTLK,
Billing Hi-Lo Re-Read,TMFRD,
Billing Hi-Lo Re-Read,TMMRD,
Change Meter                            ,CANOT,
Change Meter                            ,CNCLD,
Change Meter                            ,CNL  ,
Change Meter                            ,CUSTR,RR
Change Meter                            ,MTPPS,PULL
Change Meter                            ,MTPUL,PULL
Change Meter                            ,MTRCB,RR
Change Meter                            ,MTRMT,RR
Change Meter                            ,MTROK,RR
Change Meter                            ,MTRRP,PULL,SET
Change Meter                            ,MTRRR,PULL,SET
Change Meter                            ,NOACC,
Change Meter                            ,NOMT ,
Change Meter                            ,RDLCK,RR
Change Meter                            ,RDLKF,RR
Check for Tampering                     ,CANOT,
Check for Tampering                     ,CNCLD,
Check for Tampering                     ,CNL  ,
Check for Tampering                     ,CRMPS,CTOFF
Check for Tampering                     ,CRPSS,CTOFF
Check for Tampering                     ,DSCIL,CTOFF
Check for Tampering                     ,DSCML,CTOFF
Check for Tampering                     ,DSCRM,CTOFF
Check for Tampering                     ,DSCRP,CTOFF
Check for Tampering                     ,DSCSS,PULL
Check for Tampering                     ,DSCST,PULL
Check for Tampering                     ,DSMLN,CTOFF
Check for Tampering                     ,MTPLP,PULL
Check for Tampering                     ,MTPPS,PULL
Check for Tampering                     ,NOACC,
Check for Tampering                     ,NOTMP,
Cost Specification                      ,CANOT,
Cost Specification                      ,CMPLT,
Cost Specification                      ,CNCLD,
Cost Specification                      ,CNL  ,
Customer Requested Reread               ,CANOT,
Customer Requested Reread               ,CNCLD,
Customer Requested Reread               ,CNL  ,
Customer Requested Reread               ,INLK ,RR
Customer Requested Reread               ,MTCHF,RR
Customer Requested Reread               ,MTCHS,RR
Customer Requested Reread               ,MTMTF,RR
Customer Requested Reread               ,MTRCB,RR
Customer Requested Reread               ,MTRCH,RR
Customer Requested Reread               ,MTRCS,RR
Customer Requested Reread               ,MTRMT,RR
Customer Requested Reread               ,MTRRA,RR
Customer Requested Reread               ,MTRRD,RR
Customer Requested Reread               ,OPNFT,RR
Customer Requested Reread               ,OUTLK,RR
Customer Requested Reread               ,RDLCK,RR
Cut Off for Non-Payment                 ,CANOT,
Cut Off for Non-Payment                 ,CNCLD,
Cut Off for Non-Payment                 ,CNL  ,
Cut Off for Non-Payment                 ,DSCRM,CTOFF
Cut Off for Non-Payment                 ,DSCRP,CTOFF
Cut Off for Non-Payment                 ,DSMLN,CTOFF
Cut Off for Non-Payment                 ,DSOFF,CTOFF
Cut Off for Non-Payment                 ,DSPLS,PULL
Cut Off for Non-Payment                 ,DSPUL,PULL
Cut Off for Non-Payment                 ,DSTMP,PULL
Cut Off for Non-Payment                 ,DSTMS,PULL
Cut Off for Non-Payment                 ,MTNOY,
Cut Off for Non-Payment                 ,NOACC,
Cut Off for Returned Check              ,CANOT,
Cut Off for Returned Check              ,CNCLD,
Cut Off for Returned Check              ,CNL  ,
Cut Off for Returned Check              ,DSCCG,CTOFF
Cut Off for Returned Check              ,DSCCS,CTOFF
Cut Off for Returned Check              ,DSCNT,CTOFF
Cut Off for Returned Check              ,DSCRM,CTOFF
Cut Off for Returned Check              ,DSCRP,CTOFF
Cut Off for Returned Check              ,DSMLN,CTOFF
Cut Off for Returned Check              ,DSOFF,CTOFF
Cut Off for Returned Check              ,DSPLS,PULL
Cut Off for Returned Check              ,DSPUL,PULL
Cut Off for Returned Check              ,DSTMP,PULL
Cut Off for Returned Check              ,DSTMS,PULL
Cut Off for Returned Check              ,MTRDH,
Cut Off for Returned Check              ,NOACC,
Cut Off for Returned Check              ,NOMT ,
Cut Off forTampering                    ,CANOT,
Cut Off forTampering                    ,CNCLD,
Cut Off forTampering                    ,CNL  ,
Cut Off forTampering                    ,DSCIL,CTOFF
Cut Off forTampering                    ,DSCML,CTOFF
Cut Off forTampering                    ,DSCNT,CTOFF
Cut Off forTampering                    ,DSCRM,CTOFF
Cut Off forTampering                    ,DSCRP,CTOFF
Cut Off forTampering                    ,DSMLN,CTOFF
Cut Off forTampering                    ,MTOFF,RR
Cut Off forTampering                    ,MTPLP,PULL
Cut Off forTampering                    ,MTPPS,PULL
Cut Off forTampering                    ,NOACC,
Cut Off forTampering                    ,NOMT ,
Data Logger Download,CANOT,
Data Logger Download,CMPLT,
Data Logger Download,CNL  ,
Data Logger Download,CNLCD,
Data Logger Download,NOACC,
Data Logger Install                     ,CANOT,
Data Logger Install                     ,CMPLT,
Data Logger Install                     ,CNCLD,
Data Logger Install                     ,CNL  ,
Data Logger Install                     ,DLMCB,
Data Logger Install                     ,DLMCH,
Data Logger Install                     ,DLMCS,
Data Logger Install                     ,DLMRP,
Data Logger Install                     ,NOACC,
Data Logger Remove                      ,CANOT,
Data Logger Remove                      ,CMPLT,
Data Logger Remove                      ,CNCLD,
Data Logger Remove                      ,CNL  ,
Data Logger Remove                      ,NOACC,
Decommission,CANOT,
Decommission,CMPLT,
Decommission,CNCLD,
Decommission,CNL,
Decommission,NOACC,
Demo Service                            ,CNCLD,
Demo Service                            ,CNL,
Demo Service                            ,DCOMG,
Demo Service                            ,NOACC,
Demo Service                            ,SVTRM,
Demo Service                            ,TRMSV,
Emergency Cut Off                       ,CNCLD,
Emergency Cut Off                       ,CNCMP,
Emergency Cut Off                       ,CNL  ,
Emergency Cut Off                       ,MTCNT,CTOFF
Emergency Cut Off                       ,MTCRM,CTOFF
Emergency Cut Off                       ,MTCRP,CTOFF
Emergency Cut Off                       ,MTOFF,CTOFF
Field Investigation                     ,CANOT,
Field Investigation                     ,CMPRD,RR
Field Investigation                     ,CNCLD,
Field Investigation                     ,CNL  ,
Field Investigation                     ,MTREM,PULL
Field Investigation                     ,MTRMS,PULL
Field Investigation                     ,NOACC,
Field Investigation- Meter Locate,CANOT,
Field Investigation- Meter Locate,CMPLT,
Field Investigation- Meter Locate,CNCLD,
Field Investigation- Meter Locate,CNL,
Field Investigation- Meter Locate,MTRCB,
Field Investigation- Meter Locate,NOACC,
Field Investigation- Meter Locate,NOMT ,
Field Investigation- Meter Locate,RPMTR,
Field Investigation- Meter Locate,RPRED,
Get Final Read                          ,CANOT,
Get Final Read                          ,CNCLD,
Get Final Read                          ,FBILL,CUTOF
Get Final Read                          ,LSTRD,
Get Final Read                          ,MTCRM,
Get Final Read                          ,MTCRP,
Get Final Read                          ,MTOFF,
Get Final Read                          ,MTRPF,PULL
Get Final Read                          ,MTRPS,
Get Start Read                          ,CANOT,
Get Start Read                          ,CMPRD,CUTON
Get Start Read                          ,CNCLD,
Get Start Read                          ,DLMRP,
Get Start Read                          ,LSTRD,
Get Start Read                          ,MTRCB,
Get Start Read                          ,NOACC,
GPS New Service Point                   ,CANOT,
GPS New Service Point                   ,CMPLT,
GPS New Service Point                   ,CNCLD,
Inspection Install Finish,CANOT,
Inspection Install Finish,CMPLT,
Inspection Install Finish,CNCLD,
Inspection Install Finish,CNL,
Inspection Install Finish,NOACC,
Inspection Install Off,CANOT,
Inspection Install Off,CMPLT,
Inspection Install Off,CNCLD,
Inspection Install Off,CNL,
Inspection Install Off,MTCHG,
Inspection Install Off,NOACC,
Inspection Install Off,OPNFT,
Inspection Install Off,RPMTR,
Inspection Install On,CANOT,
Inspection Install On,CMPLT,
Inspection Install On,CNCLD,
Inspection Install On,CNL,
Inspection Install On,MTCHG,
Inspection Install On,MTCHS,
Inspection Install On,NOACC,
Inspection Install On,OPNFT,
Inspection Install On,RPMTR,
Install/change AMR,CANOT,
Install/change AMR,CMPLT,
Install/change AMR,CNCLD,
Install/change AMR,CNL,
Install/change AMR,MTCHG,
Install/change AMR,MTCHS,
Install/change AMR,NOACC,
Install/change AMR,RPMTR,
Installed Service Dye Test,CANOT,
Installed Service Dye Test,CCTV,
Installed Service Dye Test,CNCLD,
Installed Service Dye Test,NEGTV,
Installed Service Dye Test,NOACC,
Installed Service Dye Test,PSTIV,
Leak Reported                           ,CANOT,
Leak Reported                           ,CMPLT,RR
Leak Reported                           ,CNCLD,
Leak Reported                           ,CNL  ,
Leak Reported                           ,CNTCT,RR
Leak Reported                           ,INLK ,RR
Leak Reported                           ,MTOFF,RR
Leak Reported                           ,MTPLP,PULL
Leak Reported                           ,MTPPS,PULL
Leak Reported                           ,MTRCB,RR
Leak Reported                           ,MTRMT,RR
Leak Reported                           ,OUTLK,RR
Leak Reported                           ,RDLCK,RR
Lock Meter                              ,CANOT,
Lock Meter                              ,CNCLD,
Lock Meter                              ,CNL  ,
Lock Meter                              ,LCKFE,RR
Lock Meter                              ,MTPLP,PULL
Lock Meter                              ,MTPPS,
Lock Meter                              ,MTRCB,CTOFF
Lock Meter                              ,MTRMT,CTOFF
Lock Meter                              ,NOACC,
Lock Meter                              ,NOMT ,
Lock Meter                              ,RDLCK,RR
Lock Meter                              ,RDLRC,CTOFF
Lock Meter                              ,RDLRM,CTOFF
Meter Read and Turn Off                 ,CANOT,
Meter Read and Turn Off                 ,CNCLD,
Meter Read and Turn Off                 ,CNL  ,
Meter Read and Turn Off                 ,MTPLP,
Meter Read and Turn Off                 ,MTPPS,
Meter Read and Turn Off                 ,RDOFF,RR
Meter Set                               ,CANOT,
Meter Set                               ,CNCLD,
Meter Set                               ,CNL,
Meter Set                               ,MTOFF,SET
Meter Set                               ,MTON ,SET
Meter Set                               ,MTRBX,
No Access Locations,CANOT,
No Access Locations,CNCLD,
No Access Locations,CNL  ,
No Access Locations,INLK ,RR
No Access Locations,MTCHF,RR
No Access Locations,MTMTF,RR
No Access Locations,MTRCB,RR
No Access Locations,MTRCH,RR
No Access Locations,MTRMT,RR
No Access Locations,MTRRA,RR
No Access Locations,MTRRD,RR
No Access Locations,NOMT ,
No Access Locations,OPNFT,RR
No Access Locations,OUTLK,RR
No Service Dye Test,CANOT,
No Service Dye Test,CCTV,
No Service Dye Test,CNCLD,
No Service Dye Test,NEGTV,
No Service Dye Test,NOACC,
No Service Dye Test,PSTIV,
Notify Customer                         ,CANOT,
Notify Customer                         ,CMPLT,
Notify Customer                         ,CNCLD,
Notify Customer                         ,CNL  ,
Notify Customer                         ,DSMLN,CTOFF
Notify Customer                         ,NOACC,
Notify Customer                         ,NOMT ,
Open Faucet Clear                       ,CNCLD,
Open Faucet Clear                       ,CNL  ,
Open Faucet Clear                       ,MTRCB,RR
Open Faucet Clear                       ,MTRMT,RR
Open Faucet Clear                       ,MTTMS,
Open Faucet Clear                       ,NOACC,
Open Faucet Clear                       ,OPNFT,RR
Open Faucet Clear                       ,RECON,CTON
Paid On,CNCLD,
Paid On,MTOFF,
Paid On,MTRBX,
Paid On,MTRCB,
Paid On,MTRMT,
Paid On,MTRST,
Paid On,OPNFT,
Paid On,RECON,
Possible Illegal Consumption            ,CNCLD,
Possible Illegal Consumption            ,ILCON,RR
Possible Illegal Consumption            ,MTPLP,PULL
Possible Illegal Consumption            ,MTPPS,
Possible Illegal Consumption            ,MTRCF,RR
Possible Illegal Consumption            ,NOTMP,
Possible Illegal Consumption            ,RDLCK,RR
Possible Illegal Consumption            ,RDLKF,RR
Pull Meter                              ,CANOT,
Pull Meter                              ,CNCLD,
Pull Meter                              ,CNL  ,
Pull Meter                              ,DSCML,CTOFF
Pull Meter                              ,DSCNT,RR
Pull Meter                              ,DSCRM,CTOFF
Pull Meter                              ,DSCRP,CTOFF
Pull Meter                              ,DSMLN,CTOFF
Pull Meter                              ,DSOFF,CTOFF
Pull Meter                              ,DSPLS,PULL
Pull Meter                              ,DSPUL,PULL
Pull Meter                              ,DSTMP,PULL
Pull Meter                              ,DSTMS,PULL
Pull Meter                              ,HYDMV,
Pull Meter                              ,NOACC,
Pull Meter                              ,NOMT ,
Repair AMR,CANOT,
Repair AMR,CMPLT,
Repair AMR,CNCLD,
Repair AMR,CNL,
Repair AMR,INAMR,
Repair AMR,MTCHG,
Repair AMR,MTCHS,
Repair AMR,NOACC,
Repair AMR,RPMTR,
Repair Curbstop                         ,CANOT,
Repair Curbstop                         ,CMPLT,RR
Repair Curbstop                         ,CNCLD,
Repair Curbstop                         ,CNL  ,
Repair Curbstop                         ,CNTCT,RR
Repair Curbstop                         ,MTPLP,PULL
Repair Curbstop                         ,MTPPS,
Repair Curbstop                         ,MTRMT,RR
Repair Curbstop                         ,OUTLK,RR
Repair Meter                            ,CANOT,
Repair Meter                            ,CMPRD,RR
Repair Meter                            ,CNCLD,
Repair Meter                            ,CNL  ,
Repair Meter                            ,CUSTR,RR
Repair Meter                            ,DSTMS,PULL
Repair Meter                            ,INLK ,RR
Repair Meter                            ,MTPPS,
Repair Meter                            ,MTPUL,PULL
Repair Meter                            ,MTRBX,RR
Repair Meter                            ,MTRCB,RR
Repair Meter                            ,MTRCH,RR
Repair Meter                            ,MTRMT,RR
Repair Meter                            ,MTROK,RR
Repair Meter                            ,MTRRA,RR
Repair Meter                            ,MTRRP,PULL
Repair Meter                            ,MTTMP,PULL,SET
Repair Meter                            ,MTTPS,
Repair Meter                            ,NOACC,
Repair Meter                            ,NOMT ,
Repair Meter                            ,OUTLK,RR
Repair Meter                            ,RDLCK,RR
Repair Meter                            ,RDLKF,RR
Reread and Check for Leaks              ,CANOT,
Reread and Check for Leaks              ,CNCLD,
Reread and Check for Leaks              ,CNL  ,
Reread and Check for Leaks              ,INLK ,RR
Reread and Check for Leaks              ,MTCHF,RR
Reread and Check for Leaks              ,MTCHS,
Reread and Check for Leaks              ,MTMTF,RR
Reread and Check for Leaks              ,MTRCB,RR
Reread and Check for Leaks              ,MTRCH,RR
Reread and Check for Leaks              ,MTRCS,
Reread and Check for Leaks              ,MTRMT,RR
Reread and Check for Leaks              ,MTRRA,RR
Reread and Check for Leaks              ,MTRRD,RR
Reread and Check for Leaks              ,NOMT ,
Reread and Check for Leaks              ,OPNFT,RR
Reread and Check for Leaks              ,OUTLK,RR
Reread and Check for Leaks              ,TMFRD,
Reread and Check for Leaks              ,TMMRD,
Restore Service                         ,CANOT,
Restore Service                         ,CNCLD,
Restore Service                         ,CNL,
Restore Service                         ,INSBX,
Restore Service                         ,MTOFF,SET
Restore Service                         ,MTON ,SET
Restore Service                         ,NOACC,
Restore Service                         ,OPNFT,
Restore Service                         ,RPMTR,
Sewer Tap                               ,CANOT,
Sewer Tap                               ,CMPLT,
Sewer Tap                               ,CNCLD,
Special Request                         ,CANOT,
Special Request                         ,CMPLT,
Special Request                         ,CNCLD,
Special Request                         ,CNL  ,
Special Request                         ,CNTCT,
Special Request                         ,HYDMV,
Special Request                         ,INLK ,RR
Special Request                         ,INXCC,
Special Request                         ,MTOFF,RR
Special Request                         ,NOMT ,
Special Request                         ,OPNFT,RR
Special Request                         ,OUTLK,RR
Special Request                         ,RPMTR,
Tap and Set                             ,CANOT,
Tap and Set                             ,CMPLT,SET
Tap and Set                             ,CNCLD,
Tap and Set                             ,CNL,
Tap and Set                             ,MTOFF,SET
Tap and Set                             ,MTON ,SET
Tap and Set                             ,NOACC,
Tap Only                                ,CANOT,
Tap Only                                ,CMPLT,
Tap Only                                ,CNCLD,
Terminate Service                       ,CANOT,
Terminate Service                       ,CNCLD,
Terminate Service                       ,CNL,
Terminate Service                       ,DCOMG,
Terminate Service                       ,NOACC,
Terminate Service                       ,TMSVS,
Terminate Service                       ,TRMSV,
Test Meter                              ,CNCLD,
Test Meter                              ,MTLCK,RR
Test Meter                              ,NOACC,
Test Meter                              ,TSTOK,RR
Test Meter                              ,TSTRP,RR
Test Meter                              ,TSTRR,RR
Test Meter                              ,TSTRS,
